// This file is generated automatically. All manually added changes will be removed when running the Converter.
// Map 015-5: Abandoned Mines warps
015-5,81,138,0	warp	#015-5_81_138	0,0,014-5,86,32
015-5,353,61,0	warp	#015-5_353_61	0,0,015-6,193,57
