// This file is generated automatically. All manually added changes will be removed when running the Converter.
// Map 007-1-2: Canyon Cave warps
007-1-2,50,54,0	warp	#007-1-2_50_54	0,0,004-2,85,50
007-1-2,56,26,0	warp	#007-1-2_56_26	0,0,004-2,92,34
007-1-2,48,20,0	warp	#007-1-2_48_20	0,0,004-3-5,36,44
007-1-2,32,32,0	warp	#007-1-2_32_32	0,0,010-2-15,60,36
