// This file is generated automatically. All manually added changes will be removed when running the Converter.
// Map 010-2-7: Canyon Cave warps
010-2-7,53,49,0	warp	#010-2-7_53_49	0,0,010-1-7,47,21
010-2-7,35,28,0	warp	#010-2-7_35_28	0,0,010-2-6,41,30
