// This file is generated automatically. All manually added changes will be removed when running the Converter.
// Map 019-2: Nivalis Port warps
019-2,37,55,0	warp	#019-2_37_55	0,0,020-1,106,55
019-2,76,24,0	warp	#019-2_76_24	0,0,021-1,212,299
