// This file is generated automatically. All manually added changes will be removed when running the Converter.
// Map 017-5: LoF Weapon Smith & Shop warps
017-5,23,34,0	warp	#017-5_23_34	0,0,017-1,133,156
