// This file is generated automatically. All manually added changes will be removed when running the Converter.
// Map 010-2-14: Canyon Cave mobs
010-2-14,0,0,0,0	monster	Bat	1039,3,35000,150000
010-2-14,35,37,5,12	monster	Bat	1039,3,35000,150000
010-2-14,35,43,7,9	monster	Snake	1122,4,35000,150000
010-2-14,0,0,0,0	monster	Plushroom Field	1011,2,35000,150000
