// This file is generated automatically. All manually added changes will be removed when running the Converter.
// Map soren: Soren's Village mobs
soren,122,104,102,81	monster	Moonshroom	1069,14,60000,60000
soren,102,84,102,81	monster	Forain	1061,5,60000,60000
soren,103,91,64,40	monster	4144's Tortuga	1004,1,6600000,600000
soren,105,87,30,23	monster	Snake	1122,4,15000,15000
soren,109,57,12,5	monster	Guardians Of Soren	1130,4,5000,10000
soren,110,97,103,81	monster	Angry Red Scorpion	1130,18,5000,10000
