// This file is generated automatically. All manually added changes will be removed when running the Converter.
// Map 006-3: Candor's Underground, B2F mobs
006-3,46,38,16,14	monster	Yellow Slime	1091,6,120000,30000
006-3,44,36,15,14	monster	Red Slime	1092,4,120000,30000
006-3,45,33,18,14	monster	Mineral Bif	1058,1,300000,30000
006-3,44,32,23,12	monster	Big Diamond Bif	1109,1,240000,30000
