// This file is generated automatically. All manually added changes will be removed when running the Converter.
// Map 010-2-10: Canyon Cave mobs
010-2-10,39,34,9,12	monster	Bat	1039,6,35000,150000
010-2-10,0,0,0,0	monster	Cave Maggot	1027,8,35000,150000
010-2-10,40,35,10,5	monster	Snake	1199,12,35000,150000
010-2-10,42,27,11,5	monster	Old Snake	1122,3,35000,150000
010-2-10,0,0,0,0	monster	Small Topaz Bif	1101,1,35000,150000
