// Job-specific Stat Bonuses Database
//
// Structure of Database:
// JobID,JobLv1,JobLv2,JobLv3,...
//
// Legend for 'JobLvN' fields:
//  0 = No stat bonus at this job level
//  1 = STR increased by 1 at this job level
//  2 = AGI increased by 1 at this job level
//  3 = VIT increased by 1 at this job level
//  4 = INT increased by 1 at this job level
//  5 = DEX increased by 1 at this job level
//  6 = LUK increased by 1 at this job level
//
// TMW2 default is: ,0,6,5,0,2,3,0,1,4,0
// 
// Kaizei Human (max level = 140)
0,0,6,5,0,2,3,0,1,4,0,0,6,5,0,2,3,0,1,4,0,0,6,5,0,2,3,0,1,4,0,0,6,5,0,2,3,0,1,4,0,0,6,5,0,2,3,0,1,4,0,0,6,5,0,2,3,0,1,4,0,0,6,5,0,2,3,0,1,4,0,0,6,5,0,2,3,0,1,4,0,0,6,5,0,2,3,0,1,4,0,0,6,5,0,2,3,0,1,4,0,0,6,5,0,2,3,0,1,4,0,0,6,5,0,2,3,0,1,4,0,0,6,5,0,2,3,0,1,4,0,0,6,5,0,2,3,0,1,4,0
// Argaes Human (max level = 140)
1,0,6,5,0,2,3,0,1,4,0,0,6,5,0,2,3,0,1,4,0,0,6,5,0,2,3,0,1,4,0,0,6,5,0,2,3,0,1,4,0,0,6,5,0,2,3,0,1,4,0,0,6,5,0,2,3,0,1,4,0,0,6,5,0,2,3,0,1,4,0,0,6,5,0,2,3,0,1,4,0,0,6,5,0,2,3,0,1,4,0,0,6,5,0,2,3,0,1,4,0,0,6,5,0,2,3,0,1,4,0,0,6,5,0,2,3,0,1,4,0,0,6,5,0,2,3,0,1,4,0,0,6,5,0,2,3,0,1,4,0
// Tonori Human (max level = 140)
2,0,6,5,0,2,3,0,1,4,0,0,6,5,0,2,3,0,1,4,0,0,6,5,0,2,3,0,1,4,0,0,6,5,0,2,3,0,1,4,0,0,6,5,0,2,3,0,1,4,0,0,6,5,0,2,3,0,1,4,0,0,6,5,0,2,3,0,1,4,0,0,6,5,0,2,3,0,1,4,0,0,6,5,0,2,3,0,1,4,0,0,6,5,0,2,3,0,1,4,0,0,6,5,0,2,3,0,1,4,0,0,6,5,0,2,3,0,1,4,0,0,6,5,0,2,3,0,1,4,0,0,6,5,0,2,3,0,1,4,0
// Elven (max level = 140)
3,0,6,5,0,2,3,0,4,4,0,0,6,5,0,2,3,0,1,4,4,0,6,5,0,2,3,0,4,4,0,0,6,5,0,2,3,0,1,4,4,0,6,5,0,2,3,0,4,4,0,0,6,5,0,2,3,0,1,4,4,0,6,5,0,2,3,0,4,4,0,0,6,5,0,2,3,0,1,4,4,0,6,5,0,2,3,0,4,4,0,0,6,5,0,2,3,0,1,4,4,0,6,5,0,2,3,0,4,4,0,0,6,5,0,2,3,0,1,4,4,0,6,5,0,2,3,0,4,4,0,0,6,5,0,2,3,0,1,4,4
// Orc (max level = 140)
4,0,6,5,0,1,3,0,1,4,0,0,6,5,0,2,3,1,1,4,0,0,6,5,0,1,3,0,1,4,0,0,6,5,0,2,3,1,1,4,0,0,6,5,0,1,3,0,1,4,0,0,6,5,0,2,3,1,1,4,0,0,6,5,0,1,3,0,1,4,0,0,6,5,0,2,3,1,1,4,0,0,6,5,0,1,3,0,1,4,0,0,6,5,0,2,3,1,1,4,0,0,6,5,0,1,3,0,1,4,0,0,6,5,0,2,3,1,1,4,0,0,6,5,0,1,3,0,1,4,0,0,6,5,0,2,3,1,1,4,0
// Raijin (max level = 140)
5,0,6,5,3,2,3,0,1,3,0,0,6,5,3,2,3,0,1,4,0,0,6,5,3,2,3,0,1,3,0,0,6,5,3,2,3,0,1,4,0,0,6,5,3,2,3,0,1,3,0,0,6,5,3,2,3,0,1,4,0,0,6,5,3,2,3,0,1,3,0,0,6,5,3,2,3,0,1,4,0,0,6,5,3,2,3,0,1,3,0,0,6,5,3,2,3,0,1,4,0,0,6,5,3,2,3,0,1,3,0,0,6,5,3,2,3,0,1,4,0,0,6,5,3,2,3,0,1,3,0,0,6,5,3,2,3,0,1,4,0
// Tritan (max level = 140)
6,0,6,5,0,2,5,0,1,4,0,0,6,5,0,2,3,0,1,4,5,0,6,5,0,2,5,0,1,4,0,0,6,5,0,2,3,0,1,4,5,0,6,5,0,2,5,0,1,4,0,0,6,5,0,2,3,0,1,4,5,0,6,5,0,2,5,0,1,4,0,0,6,5,0,2,3,0,1,4,5,0,6,5,0,2,5,0,1,4,0,0,6,5,0,2,3,0,1,4,5,0,6,5,0,2,5,0,1,4,0,0,6,5,0,2,3,0,1,4,5,0,6,5,0,2,5,0,1,4,0,0,6,5,0,2,3,0,1,4,5
// Ukar (max level = 140)
7,0,2,5,0,2,3,0,1,4,0,0,6,5,2,2,3,0,1,4,0,0,2,5,0,2,3,0,1,4,0,0,6,5,2,2,3,0,1,4,0,0,2,5,0,2,3,0,1,4,0,0,6,5,2,2,3,0,1,4,0,0,2,5,0,2,3,0,1,4,0,0,6,5,2,2,3,0,1,4,0,0,2,5,0,2,3,0,1,4,0,0,6,5,2,2,3,0,1,4,0,0,2,5,0,2,3,0,1,4,0,0,6,5,2,2,3,0,1,4,0,0,2,5,0,2,3,0,1,4,0,0,6,5,2,2,3,0,1,4,0
// Redy (max level = 140)
8,0,6,5,0,2,3,0,1,3,0,0,6,5,4,2,3,0,1,4,0,0,6,5,0,2,3,0,1,3,0,0,6,5,4,2,3,0,1,4,0,0,6,5,0,2,3,0,1,3,0,0,6,5,4,2,3,0,1,4,0,0,6,5,0,2,3,0,1,3,0,0,6,5,4,2,3,0,1,4,0,0,6,5,0,2,3,0,1,3,0,0,6,5,4,2,3,0,1,4,0,0,6,5,0,2,3,0,1,3,0,0,6,5,4,2,3,0,1,4,0,0,6,5,0,2,3,0,1,3,0,0,6,5,4,2,3,0,1,4,0
// Savior (max level = 150)
9,0,0,0,0,0,0,0,0,0,0,1,2,3,4,5,6,0,1,2,3,4,5,6,0,1,2,3,4,5,6,1,2,3,4,5,6,0,1,2,3,4,5,6,0,1,2,3,4,5,6,1,2,3,4,5,6,0,1,2,3,4,5,6,0,1,2,3,4,5,6,1,2,3,4,5,6,0,1,2,3,4,5,6,0,1,2,3,4,5,6,1,2,3,4,5,6,0,1,2,3,4,5,6,0,1,2,3,4,5,6,1,2,3,4,5,6,0,1,2,3,4,5,6,0,1,2,3,4,5,6,1,2,3,4,5,6,0,1,2,3,4,5,6,0,1,2,3,4,5,6

// Particles
//  1 = STR increased by 1 at this job level
//  2 = AGI increased by 1 at this job level
//  3 = VIT increased by 1 at this job level
//  4 = INT increased by 1 at this job level
//  5 = DEX increased by 1 at this job level
//  6 = LUK increased by 1 at this job level
// Human: ,0,6,5,0,2,3,0,1,4,0,0,6,5,0,2,3,0,1,4,0
// Elf:   ,0,6,5,0,2,3,0,4,4,0,0,6,5,0,2,3,0,1,4,4
// Orc:   ,0,6,5,0,1,3,0,1,4,0,0,6,5,0,2,3,1,1,4,0
// Raijin:,0,6,6,0,2,3,0,1,4,0,0,6,5,0,2,3,6,1,4,0
// Tritan:,0,6,5,0,2,5,0,1,4,0,0,6,5,0,2,3,0,1,4,5
// Ukar:  ,0,2,5,0,2,3,0,1,4,0,0,6,5,2,2,3,0,1,4,0
// Redy:  ,0,6,5,3,2,3,0,1,3,0,0,6,5,3,2,3,0,1,4,0
// Savior:,1,2,3,4,5,6,0,1,2,3,4,5,6,0,1,2,3,4,5,6


