// This file is generated automatically. All manually added changes will be removed when running the Converter.
// Map 010-1-7: Canyon Cave mobs
010-1-7,56,33,3,9	monster	Bat	1039,5,35000,150000
010-1-7,33,31,3,6	monster	Bat	1039,5,35000,150000
010-1-7,42,24,12,2	monster	Bat	1039,5,35000,150000
010-1-7,52,41,5,2	monster	Bat	1039,2,35000,150000
010-1-7,38,37,7,2	monster	Bat	1039,3,35000,150000
010-1-7,44,30,8,4	monster	Black Scorpion	1074,15,35000,150000
010-1-7,0,0,0,0	monster	Cave Maggot	1027,7,35000,150000
010-1-7,0,0,0,0	monster	Small Topaz Bif	1101,1,35000,150000
