// This file is generated automatically. All manually added changes will be removed when running the Converter.
// Map 015-3-3: Pirate Den mobs
015-3-3,50,67,4,3	monster	Grenadier	1444,1,100000,30000
015-3-3,47,72,8,3	monster	Swashbuckler	1443,2,100000,30000
015-3-3,53,74,5,2	monster	Thug	1442,2,100000,30000
015-3-3,50,90,3,2	monster	Grenadier	1444,1,100000,30000
015-3-3,46,84,6,2	monster	Thug	1442,2,100000,30000
015-3-3,40,89,6,3	monster	Swashbuckler	1443,2,100000,30000
015-3-3,61,37,4,3	monster	Grenadier	1444,1,100000,30000
015-3-3,66,40,5,1	monster	Thug	1442,2,100000,30000
015-3-3,71,36,5,2	monster	Swashbuckler	1443,2,100000,30000
015-3-3,93,40,4,4	monster	Grenadier	1444,1,100000,30000
015-3-3,87,37,5,3	monster	Thug	1442,2,100000,30000
015-3-3,102,39,4,2	monster	Swashbuckler	1443,2,100000,30000
015-3-3,46,52,5,7	monster	Thug	1442,2,100000,30000
015-3-3,48,44,5,7	monster	Swashbuckler	1443,2,100000,30000
