// This file is generated automatically. All manually added changes will be removed when running the Converter.
// Map 006-2-5: Throne Room warps
006-2-5,38,35,0	warp	#006-2-5_38_35	0,0,006-2,68,75
006-2-5,34,21,0	warp	#006-2-5_34_21	0,0,006-2-6,33,23
006-2-5,43,23,0	warp	#006-2-5_43_23	0,0,006-2-4,39,23
